p8105\_hw3\_rw2708
================
Ran Wang
10/7/2019

\#Problem 1

``` r
instacart <- instacart %>% 
 #reorder the variables 
 select(user_id, order_id, order_number, product_id, product_name, order_dow, everything())

instacart
## # A tibble: 1,384,617 x 15
##    user_id order_id order_number product_id product_name order_dow
##      <int>    <int>        <int>      <int> <chr>            <int>
##  1  112108        1            4      49302 Bulgarian Y…         4
##  2  112108        1            4      11109 Organic 4% …         4
##  3  112108        1            4      10246 Organic Cel…         4
##  4  112108        1            4      49683 Cucumber Ki…         4
##  5  112108        1            4      43633 Lightly Smo…         4
##  6  112108        1            4      13176 Bag of Orga…         4
##  7  112108        1            4      47209 Organic Has…         4
##  8  112108        1            4      22035 Organic Who…         4
##  9   79431       36           23      39612 Grated Peco…         6
## 10   79431       36           23      19660 Spring Water         6
## # … with 1,384,607 more rows, and 9 more variables:
## #   add_to_cart_order <int>, reordered <int>, eval_set <chr>,
## #   order_hour_of_day <int>, days_since_prior_order <int>, aisle_id <int>,
## #   department_id <int>, aisle <chr>, department <chr>
```
…
``` r
#count the number of items in each aisle
 count_aisle <- instacart %>%
  group_by(aisle) %>% 
  distinct() %>% 
  summarize(count_aisle = n()) %>% 
  arrange(desc(count_aisle))

 count_aisle
```

    ## # A tibble: 134 x 2
    ##    aisle                         count_aisle
    ##    <chr>                               <int>
    ##  1 fresh vegetables                   150609
    ##  2 fresh fruits                       150473
    ##  3 packaged vegetables fruits          78493
    ##  4 yogurt                              55240
    ##  5 packaged cheese                     41699
    ##  6 water seltzer sparkling water       36617
    ##  7 milk                                32644
    ##  8 chips pretzels                      31269
    ##  9 soy lactosefree                     26240
    ## 10 bread                               23635
    ## # … with 124 more rows
…
brfss_clean
```

    ## # A tibble: 10,625 x 23
    ##     year state location class topic question response sample_size
    ##    <int> <chr> <chr>    <chr> <chr> <chr>    <fct>          <int>
    ##  1  2010 AL    AL - Je… Heal… Over… How is … Excelle…          94
    ##  2  2010 AL    AL - Mo… Heal… Over… How is … Excelle…          91
    ##  3  2010 AL    AL - Tu… Heal… Over… How is … Excelle…          58
    ##  4  2010 AZ    AZ - Ma… Heal… Over… How is … Excelle…         269
    ##  5  2010 AZ    AZ - Pi… Heal… Over… How is … Excelle…          68
    ##  6  2010 AZ    AZ - Pi… Heal… Over… How is … Excelle…         133
    ##  7  2010 AR    AR - Be… Heal… Over… How is … Excelle…          67
    ##  8  2010 AR    AR - Pu… Heal… Over… How is … Excelle…         100
    ##  9  2010 AR    AR - Wa… Heal… Over… How is … Excelle…          47
    ## 10  2010 CA    CA - Al… Heal… Over… How is … Excelle…         167
    ## # … with 10,615 more rows, and 15 more variables: data_value <dbl>,
    ## #   confidence_limit_low <dbl>, confidence_limit_high <dbl>,
    ## #   display_order <int>, data_value_unit <chr>, data_value_type <chr>,
    ## #   data_value_footnote_symbol <chr>, data_value_footnote <chr>,
    ## #   data_source <chr>, class_id <chr>, topic_id <chr>, location_id <chr>,
    ## #   question_id <chr>, resp_id <chr>, geo_location <chr>
…
``` r
#generate the dataframe for plotting
excellent_data = brfss_clean %>%
  filter(response == "Excellent") %>% 
  select(year,state,location,data_value) %>% 
  #create a variable that averages the data_value across locations within a state.
  group_by(state,year) %>% 
  summarize(avg = mean(data_value,na.rm = TRUE))

excellent_data
```

    ## # A tibble: 443 x 3
    ## # Groups:   state [51]
    ##    state  year   avg
    ##    <chr> <int> <dbl>
    ##  1 AK     2002  27.9
    ##  2 AK     2003  24.8
    ##  3 AK     2004  23.0
    ##  4 AK     2005  23.8
    ##  5 AK     2007  23.5
    ##  6 AK     2008  20.6
    ##  7 AK     2009  23.2
    ##  8 AL     2002  18.5
    ##  9 AL     2003  19.5
    ## 10 AL     2004  20  
    ## # … with 433 more rows
…
    ## Parsed with column specification:
    ## cols(
    ##   .default = col_double(),
    ##   day = col_character()
    ## )

    ## See spec(...) for full column specifications.

``` r
P3_data 
```

    ## # A tibble: 50,400 x 6
    ##     week day_id day    minute_daily activity_counts weekday_weekend
    ##    <dbl>  <dbl> <chr>  <chr>                  <dbl> <chr>          
    ##  1     1      1 Friday 1                       88.4 weekday        
    ##  2     1      1 Friday 2                       82.2 weekday        
    ##  3     1      1 Friday 3                       64.4 weekday        
    ##  4     1      1 Friday 4                       70.0 weekday        
    ##  5     1      1 Friday 5                       75.0 weekday        
    ##  6     1      1 Friday 6                       66.3 weekday        
    ##  7     1      1 Friday 7                       53.8 weekday        
    ##  8     1      1 Friday 8                       47.8 weekday        
    ##  9     1      1 Friday 9                       55.5 weekday        
    ## 10     1      1 Friday 10                      43.0 weekday        
    ## # … with 50,390 more rows
…
